…
``` r
id("http://oai.datacite.org/oai")
#>   repositoryName                      baseURL protocolVersion
#> 1       DataCite https://oai.datacite.org/oai             2.0
#>             adminEmail    earliestDatestamp deletedRecord          granularity
#> 1 support@datacite.org 2011-01-01T00:00:00Z    persistent YYYY-MM-DDThh:mm:ssZ
#>   compression compression.1                                    description
#> 1        gzip       deflate oaioai.datacite.org:oai:oai.datacite.org:12425
```

## ListIdentifiers

``` r
list_identifiers(from = '2018-05-01T', until = '2018-06-01T')
#> # A tibble: 75 × 5
#>    identifier                           datestamp        setSpec setSp…¹ setSp…²
#>    <chr>                                <chr>            <chr>   <chr>   <chr>  
#>  1 4b64d1f2-31c2-40c9-80aa-bb7ddb424684 2018-05-30T13:5… instal… datase… countr…
#>  2 884378d6-d591-4760-bb70-7b4851784d96 2018-05-29T19:1… instal… datase… countr…
#>  3 18799ce9-1a66-40fc-ad18-5ac54cd3417b 2018-05-14T12:1… instal… datase… countr…
#>  4 7e91aacb-c994-41ee-a7b7-bd23c02cd5bf 2018-05-21T10:5… instal… datase… countr…
#>  5 f83746ee-4cf2-4e60-a720-dd508b559794 2018-05-08T09:4… instal… datase… countr…
#>  6 a3533a61-6f88-443e-89ae-37611ea88267 2018-05-08T13:5… instal… datase… countr…
#>  7 ba9b66a3-2d11-4193-922e-ace4d5909239 2018-05-05T23:5… instal… datase… countr…
#>  8 78b696d9-8f0d-41ab-9c23-1c3547da411d 2018-05-05T23:0… instal… datase… countr…
#>  9 c791b255-a184-4600-b828-ef9d4092a212 2018-05-05T14:2… instal… datase… countr…
#> 10 b929ccda-03b1-4166-9e5b-34588339d61d 2018-05-09T02:5… instal… datase… countr…
#> # … with 65 more rows, and abbreviated variable names ¹​setSpec.1, ²​setSpec.2
```

## Count Identifiers

``` r
count_identifiers()
#>                            url   count
#> 1 http://export.arxiv.org/oai2 2158148
```

## ListRecords

``` r
list_records(from = '2018-05-01T', until = '2018-05-15T')
#> # A tibble: 41 × 26
#>    identi…¹ dates…² setSpec setSp…³ setSp…⁴ title publi…⁵ ident…⁶ subject source
#>    <chr>    <chr>   <chr>   <chr>   <chr>   <chr> <chr>   <chr>   <chr>   <chr> 
#>  1 18799ce… 2018-0… instal… datase… countr… Bird… Sokoin… https:… Occurr… ""    
#>  2 f83746e… 2018-0… instal… datase… countr… NDFF… Dutch … https:… Metada… "http…
#>  3 a3533a6… 2018-0… instal… datase… countr… EDP … EDP - … https:… Occurr… ""    
#>  4 ba9b66a… 2018-0… instal… datase… countr… Ende… Sokoin… https:… Occurr… ""    
#>  5 78b696d… 2018-0… instal… datase… countr… Ende… Sokoin… https:… Occurr… ""    
#>  6 c791b25… 2018-0… instal… datase… countr… Ende… Sokoin… https:… Occurr… ""    
#>  7 b929ccd… 2018-0… instal… datase… countr… List… Sokoin… https:… Occurr… ""    
#>  8 da285c2… 2018-0… instal… datase… countr… Moni… Corpor… https:… seguim… ""    
#>  9 8737287… 2018-0… instal… datase… countr… Moni… Corpor… https:… seguim… ""    
#> 10 ed7d4c2… 2018-0… instal… datase… countr… Samo… Minist… https:… Occurr… ""    
#> # … with 31 more rows, 16 more variables: description <chr>,
#> #   description.1 <chr>, type <chr>, creator <chr>, date <chr>, language <chr>,
#> #   coverage <chr>, coverage.1 <chr>, format <chr>, source.1 <chr>,
#> #   subject.1 <chr>, creator.1 <chr>, coverage.2 <chr>, description.2 <chr>,
#> #   creator.2 <chr>, subject.2 <chr>, and abbreviated variable names
#> #   ¹​identifier, ²​datestamp, ³​setSpec.1, ⁴​setSpec.2, ⁵​publisher, ⁶​identifier.1
```
…
## List Sets

``` r
list_sets("http://api.gbif.org/v1/oai-pmh/registry")
#> # A tibble: 621 × 2
#>    setSpec                     setName         
#>    <chr>                       <chr>           
#>  1 dataset_type                per dataset type
#>  2 dataset_type:OCCURRENCE     occurrence      
#>  3 dataset_type:CHECKLIST      checklist       
#>  4 dataset_type:METADATA       metadata        
#>  5 dataset_type:SAMPLING_EVENT sampling_event  
#>  6 country                     per country     
#>  7 country:AD                  Andorra         
#>  8 country:AM                  Armenia         
#>  9 country:AO                  Angola          
#> 10 country:AQ                  Antarctica      
#> # … with 611 more rows
```
…
