…
Search for class _Aves_, in the state of _Nevada_, with a coordinate uncertainty range (in meters) of less than 25 meters


```r
res <- searchbyterm(class = "Aves", stateprovince = "Nevada", error = "<25", messages = FALSE)
res$data
#> # A tibble: 1,000 × 91
#>    georeferenceprotocol       higherclassification stateprovince lifestage month
#>    <chr>                      <chr>                <chr>         <chr>     <chr>
#>  1 MaNIS/HerpNet/ORNIS Geore… Animalia; Chordata;… Nevada        U-Ad.     3    
#>  2 MaNIS/HerpNet/ORNIS Geore… Animalia; Chordata;… Nevada        U-Ad      12   
#>  3 MaNIS/HerpNet/ORNIS Geore… Animalia; Chordata;… Nevada        Nestling  5    
#>  4 MaNIS/HerpNet/ORNIS Geore… Animalia; Chordata;… Nevada        U-Ad.     9    
#>  5 MaNIS/HerpNet/ORNIS Geore… Animalia; Chordata;… Nevada        U-Ad.     9    
#>  6 MaNIS/HerpNet/ORNIS Geore… Animalia; Chordata;… Nevada        U-Ad.     9    
#>  7 MaNIS/HerpNet/ORNIS Geore… Animalia; Chordata;… Nevada        Downy     6    
#>  8 MaNIS/HerpNet/ORNIS Geore… Animalia; Chordata;… Nevada        U-Ad.     6    
#>  9 MaNIS/HerpNet/ORNIS Geore… Animalia; Chordata;… Nevada        U-Ad.     6    
#> 10 MaNIS/HerpNet/ORNIS Geore… Animalia; Chordata;… Nevada        U-Ad.     6    
#> # ℹ 990 more rows
#> # ℹ 86 more variables: decimallongitude <chr>, phylum <chr>,
#> #   verbatimlongitude <chr>, year <chr>, specificepithet <chr>,
#> #   bibliographiccitation <chr>, verbatimlatitude <chr>, family <chr>,
#> #   locality <chr>, geodeticdatum <chr>, coordinateuncertaintyinmeters <chr>,
#> #   highergeography <chr>, continent <chr>, scientificnameauthorship <chr>,
#> #   day <chr>, kingdom <chr>, institutioncode <chr>, scientificname <chr>, …
```
…
Limit the number of records returned (under 1000)


```r
res <- vertsearch("(kansas state OR KSU)", limit = 200)
res$data
#> # A tibble: 200 × 78
#>    individualcount georeferenceprotocol         recordedby bibliographiccitation
#>    <chr>           <chr>                        <chr>      <chr>                
#>  1 8               GEOLocate (Rios & Bart, 201… H. W. Rob… Academy of Natural S…
#>  2 11              GEOLocate (Rios & Bart, 201… H. W. Rob… Academy of Natural S…
#>  3 3               GEOLocate (Rios & Bart, 201… H. W. Rob… Academy of Natural S…
#>  4 <NA>            <NA>                         <NA>       California Academy o…
#>  5 <NA>            <NA>                         <NA>       California Academy o…
#>  6 <NA>            <NA>                         <NA>       California Academy o…
#>  7 1               VertNet Georeferencing Guid… MCCOY, C … Carnegie Museum of N…
#>  8 1               VertNet Georeferencing Guid… MCCOY, C … Carnegie Museum of N…
#>  9 1               VertNet Georeferencing Guid… MCCOY, C … Carnegie Museum of N…
#> 10 1               VertNet Georeferencing Guid… MCCOY, C … Carnegie Museum of N…
#> # ℹ 190 more rows
#> # ℹ 74 more variables: stateprovince <chr>, basisofrecord <chr>, month <chr>,
#> #   decimallongitude <chr>, phylum <chr>, references <chr>,
#> #   georeferencedby <chr>, year <chr>, taxonrank <chr>, specificepithet <chr>,
#> #   family <chr>, countrycode <chr>, locality <chr>, geodeticdatum <chr>,
#> #   coordinateuncertaintyinmeters <chr>, highergeography <chr>,
#> #   continent <chr>, day <chr>, kingdom <chr>, georeferenceddate <chr>, …
```
…
