Introduction to dbplyr
…
If you’re familiar with SQL, this probably isn’t exactly what you’d
write by hand, but it does the job. You can learn more about the SQL
translation in vignette("translation-verb") and
vignette("translation-function").

Typically, you’ll iterate a few times before you figure out what data
you need from the database. Once you’ve figured it out, use
collect() to pull all the data down into a local
tibble:

tailnum_delay <- tailnum_delay_db %>% collect()
tailnum_delay
#> # A tibble: 1,201 × 3
#>   tailnum delay     n
#>   <chr>   <dbl> <int>
#> 1 N11119   30.3   148
#> 2 N16919   29.9   251
#> 3 N14998   27.9   230
#> 4 N15910   27.6   280
#> 5 N13123   26.0   121
#> 6 N11192   25.9   154
#> # ℹ 1,195 more rows
…
