…
## ListIdentifiers


```r
list_identifiers(from = '2018-05-01T', until = '2018-09-01T')
#> # A tibble: 2,904 x 5
#>    identifier        datestamp    setSpec           setSpec.1     setSpec.2
#>    <chr>             <chr>        <chr>             <chr>         <chr>    
#>  1 cbe4cdda-2045-41… 2018-08-30T… installation:842… dataset_type… country:…
#>  2 3fb7ddd8-07c0-49… 2018-08-28T… installation:842… dataset_type… country:…
#>  3 34585f24-1ffe-47… 2018-08-28T… installation:842… dataset_type… country:…
#>  4 8ac24ec8-1e7b-40… 2018-08-28T… installation:842… dataset_type… country:…
#>  5 e381b970-9b62-46… 2018-08-28T… installation:842… dataset_type… country:…
#>  6 4496b1b1-1ea9-4e… 2018-08-28T… installation:842… dataset_type… country:…
#>  7 fc5d68a6-b511-4c… 2018-08-27T… installation:73e… dataset_type… country:…
#>  8 5e0073bc-de2a-4b… 2018-08-27T… installation:688… dataset_type… country:…
#>  9 ab2684cf-62e5-4f… 2018-08-27T… installation:804… dataset_type… country:…
#> 10 34fbcf59-d9bb-47… 2018-08-27T… installation:7c5… dataset_type… country:…
#> # … with 2,894 more rows
```

## Count Identifiers


```r
count_identifiers()
```

## ListRecords


```r
list_records(from = '2018-05-01T', until = '2018-05-15T')
#> # A tibble: 44 x 26
#>    identifier datestamp setSpec setSpec.1 setSpec.2 title publisher
#>    <chr>      <chr>     <chr>   <chr>     <chr>     <chr> <chr>    
#>  1 18799ce9-… 2018-05-… instal… dataset_… country:… Bird… Sokoine …
#>  2 79f51633-… 2018-05-… instal… dataset_… country:… Impl… Aïgos SAS
#>  3 f83746ee-… 2018-05-… instal… dataset_… country:… NDFF… Dutch Na…
#>  4 a3533a61-… 2018-05-… instal… dataset_… country:… EDP … EDP - En…
#>  5 ba9b66a3-… 2018-05-… instal… dataset_… country:… Ende… Sokoine …
#>  6 78b696d9-… 2018-05-… instal… dataset_… country:… Ende… Sokoine …
#>  7 c791b255-… 2018-05-… instal… dataset_… country:… Ende… Sokoine …
#>  8 b929ccda-… 2018-05-… instal… dataset_… country:… List… Sokoine …
#>  9 da285c2a-… 2018-05-… instal… dataset_… country:… Moni… Corporac…
#> 10 87372877-… 2018-05-… instal… dataset_… country:… Moni… Corporac…
#> # … with 34 more rows, and 19 more variables: identifier.1 <chr>,
#> #   subject <chr>, source <chr>, description <chr>, description.1 <chr>,
#> #   type <chr>, creator <chr>, date <chr>, language <chr>, coverage <chr>,
#> #   coverage.1 <chr>, format <chr>, source.1 <chr>, subject.1 <chr>,
#> #   coverage.2 <chr>, creator.1 <chr>, description.2 <chr>,
#> #   creator.2 <chr>, subject.2 <chr>
```
…
## List Sets


```r
list_sets("http://api.gbif.org/v1/oai-pmh/registry")
#> # A tibble: 572 x 2
#>    setSpec                     setName         
#>    <chr>                       <chr>           
#>  1 dataset_type                per dataset type
#>  2 dataset_type:OCCURRENCE     occurrence      
#>  3 dataset_type:CHECKLIST      checklist       
#>  4 dataset_type:METADATA       metadata        
#>  5 dataset_type:SAMPLING_EVENT sampling_event  
#>  6 country                     per country     
#>  7 country:AD                  Andorra         
#>  8 country:AO                  Angola          
#>  9 country:AR                  Argentina       
#> 10 country:AT                  Austria         
#> # … with 562 more rows
```
…
